FileName	Strain	Treatment
GSM455115.CEL	KOP-K1	DSMO
GSM455116.CEL	KOP-K1	DSMO
GSM455117.CEL	KOP-K1	DSMO
GSM455118.CEL	HPB-ALL	DSMO
GSM455119.CEL	HPB-ALL	DSMO
GSM455120.CEL	HPB-ALL	DSMO
GSM455121.CEL	KOP-K1	SAHM1
GSM455122.CEL	KOP-K1	SAHM1
GSM455123.CEL	KOP-K1	SAHM1
GSM455124.CEL	HPB-ALL	SAHM1
GSM455125.CEL	HPB-ALL	SAHM1
GSM455126.CEL	HPB-ALL	SAHM1
